module lbxd

go 1.17

require (
	github.com/PuerkitoBio/goquery v1.7.1 // indirect
	github.com/andybalholm/cascadia v1.2.0 // indirect
	golang.org/x/net v0.0.0-20210913180222-943fd674d43e // indirect
)
